// Jest Snapshot v1, https://goo.gl/fbAQLP

exports[`initial view renders correctly 1`] = `
<div class="circle-background"><img src="@/assets/zoovu-o-white.svg" alt="zoovu o" width="420px" class="img-back img-back-1"> <img src="@/assets/zoovu-o-white.svg" alt="zoovu o" width="420px" class="img-back img-back-2"> <img src="@/assets/zoovu-v-white.svg" alt="zoovu o" width="200px" class="img-back img-back-3">
  <div class="d-flex flex-column align-items-center justify-content-center full-height" style="z-index: 20; position: relative;">
    <h1 class="mb-5 text-20 text-super-strong">Hello friend, tell me your name...</h1>
    <div class="form-group mb-5"><input type="text" placeholder="Your name here" class="form-control custom-input"></div>
    <div class="row justify-content-center"><button class="btn btn-light btn-rounded custom-button">Let's go →</button></div>
  </div>
</div>
`;
